make: `vlg2sExpr' is up to date.
*** Using c compiler g++ instead of cc ...
                         Chronologic VCS (TM)
         Version B-2008.12_Full64 -- Mon May 17 20:57:46 2010
               Copyright (c) 1991-2008 by Synopsys Inc.
                         ALL RIGHTS RESERVED

This program is proprietary and confidential information of Synopsys Inc.
and may be used and disclosed only as authorized in a license agreement
controlling such use and disclosure.


Warning-[LCA_FEATURES_ENABLED] Usage warning
  LCA features enabled by '-lca' argument on the command line.  For more 
  information regarding list of LCA features please refer to Chapter "LCA 
  features" in the VCS/VCS-MX Release Notes

Parsing design file '../rtl/b01_inst.v'
Parsing design file '../rtl/test_bench_b01.v'
Top Level Modules:
       test_top
TimeScale is 1 ns / 10 ps
VCS Coverage Metrics Release B-2008.12_Full64 Copyright (c) 2003 by Synopsys, Inc.
Starting vcs inline pass...
1 module and 0 UDP read.
recompiling module test_top
g++  -pipe -I/scr/liu187/hybro/dpi/c_interface -O -I/tools/synopsys/vcs/B-2008.12/include -c ../../dpi/test.c
g++  -pipe -I/scr/liu187/hybro/dpi/c_interface -O -I/tools/synopsys/vcs/B-2008.12/include -c ../../dpi/start_build_cfg.c
g++  -pipe -I/scr/liu187/hybro/dpi/c_interface -O -I/tools/synopsys/vcs/B-2008.12/include -c ../../dpi/vlgParser.c
vlgParser.y: In function ‘int yyparse()’:
vlgParser.y:282: warning: deprecated conversion from string constant to ‘char*’
vlgParser.y:286: warning: deprecated conversion from string constant to ‘char*’
vlgParser.y:293: warning: deprecated conversion from string constant to ‘char*’
vlgParser.y:297: warning: deprecated conversion from string constant to ‘char*’
vlgParser.y:301: warning: deprecated conversion from string constant to ‘char*’
vlgParser.y:308: warning: deprecated conversion from string constant to ‘char*’
vlgParser.y:338: warning: deprecated conversion from string constant to ‘char*’
vlgParser.y:344: warning: deprecated conversion from string constant to ‘char*’
vlgParser.y:352: warning: deprecated conversion from string constant to ‘char*’
vlgParser.y:357: warning: deprecated conversion from string constant to ‘char*’
vlgParser.y:365: warning: deprecated conversion from string constant to ‘char*’
vlgParser.y:370: warning: deprecated conversion from string constant to ‘char*’
vlgParser.y:378: warning: deprecated conversion from string constant to ‘char*’
vlgParser.y:386: warning: deprecated conversion from string constant to ‘char*’
vlgParser.y:394: warning: deprecated conversion from string constant to ‘char*’
vlgParser.y:399: warning: deprecated conversion from string constant to ‘char*’
vlgParser.y:407: warning: deprecated conversion from string constant to ‘char*’
vlgParser.y:412: warning: deprecated conversion from string constant to ‘char*’
vlgParser.y:420: warning: deprecated conversion from string constant to ‘char*’
vlgParser.y:425: warning: deprecated conversion from string constant to ‘char*’
vlgParser.y:434: warning: deprecated conversion from string constant to ‘char*’
vlgParser.y:440: warning: deprecated conversion from string constant to ‘char*’
vlgParser.y:446: warning: deprecated conversion from string constant to ‘char*’
vlgParser.y:454: warning: deprecated conversion from string constant to ‘char*’
vlgParser.y:458: warning: deprecated conversion from string constant to ‘char*’
vlgParser.y:465: warning: deprecated conversion from string constant to ‘char*’
vlgParser.y:469: warning: deprecated conversion from string constant to ‘char*’
vlgParser.y:473: warning: deprecated conversion from string constant to ‘char*’
vlgParser.y:477: warning: deprecated conversion from string constant to ‘char*’
vlgParser.y:481: warning: deprecated conversion from string constant to ‘char*’
vlgParser.y:485: warning: deprecated conversion from string constant to ‘char*’
vlgParser.y:489: warning: deprecated conversion from string constant to ‘char*’
vlgParser.y:493: warning: deprecated conversion from string constant to ‘char*’
vlgParser.y:497: warning: deprecated conversion from string constant to ‘char*’
vlgParser.y:501: warning: deprecated conversion from string constant to ‘char*’
vlgParser.y:505: warning: deprecated conversion from string constant to ‘char*’
vlgParser.y:509: warning: deprecated conversion from string constant to ‘char*’
vlgParser.y:513: warning: deprecated conversion from string constant to ‘char*’
vlgParser.y:517: warning: deprecated conversion from string constant to ‘char*’
vlgParser.y:521: warning: deprecated conversion from string constant to ‘char*’
vlgParser.y:525: warning: deprecated conversion from string constant to ‘char*’
vlgParser.y:529: warning: deprecated conversion from string constant to ‘char*’
vlgParser.y:533: warning: deprecated conversion from string constant to ‘char*’
vlgParser.y:537: warning: deprecated conversion from string constant to ‘char*’
vlgParser.y:550: warning: deprecated conversion from string constant to ‘char*’
vlgParser.y:557: warning: deprecated conversion from string constant to ‘char*’
vlgParser.y:561: warning: deprecated conversion from string constant to ‘char*’
vlgParser.y:568: warning: deprecated conversion from string constant to ‘char*’
vlgParser.y:572: warning: deprecated conversion from string constant to ‘char*’
vlgParser.y:576: warning: deprecated conversion from string constant to ‘char*’
vlgParser.y:583: warning: deprecated conversion from string constant to ‘char*’
vlgParser.y:590: warning: deprecated conversion from string constant to ‘char*’
vlgParser.y:594: warning: deprecated conversion from string constant to ‘char*’
vlgParser.y:601: warning: deprecated conversion from string constant to ‘char*’
vlgParser.y:605: warning: deprecated conversion from string constant to ‘char*’
vlgParser.y:612: warning: deprecated conversion from string constant to ‘char*’
vlgParser.y:619: warning: deprecated conversion from string constant to ‘char*’
vlgParser.y:623: warning: deprecated conversion from string constant to ‘char*’
vlgParser.y:630: warning: deprecated conversion from string constant to ‘char*’
vlgParser.y:637: warning: deprecated conversion from string constant to ‘char*’
vlgParser.y:644: warning: deprecated conversion from string constant to ‘char*’
vlgParser.y:648: warning: deprecated conversion from string constant to ‘char*’
vlgParser.y:655: warning: deprecated conversion from string constant to ‘char*’
vlgParser.y:659: warning: deprecated conversion from string constant to ‘char*’
vlgParser.y:666: warning: deprecated conversion from string constant to ‘char*’
vlgParser.y:670: warning: deprecated conversion from string constant to ‘char*’
vlgParser.y:677: warning: deprecated conversion from string constant to ‘char*’
vlgParser.y:684: warning: deprecated conversion from string constant to ‘char*’
vlgParser.y:688: warning: deprecated conversion from string constant to ‘char*’
vlgParser.y:695: warning: deprecated conversion from string constant to ‘char*’
vlgParser.y:699: warning: deprecated conversion from string constant to ‘char*’
vlgParser.y:703: warning: deprecated conversion from string constant to ‘char*’
vlgParser.y:707: warning: deprecated conversion from string constant to ‘char*’
vlgParser.y:714: warning: deprecated conversion from string constant to ‘char*’
vlgParser.y:718: warning: deprecated conversion from string constant to ‘char*’
vlgParser.y:722: warning: deprecated conversion from string constant to ‘char*’
vlgParser.y:726: warning: deprecated conversion from string constant to ‘char*’
vlgParser.y:730: warning: deprecated conversion from string constant to ‘char*’
vlgParser.y:734: warning: deprecated conversion from string constant to ‘char*’
vlgParser.y:738: warning: deprecated conversion from string constant to ‘char*’
vlgParser.y:745: warning: deprecated conversion from string constant to ‘char*’
vlgParser.y:749: warning: deprecated conversion from string constant to ‘char*’
vlgParser.y:753: warning: deprecated conversion from string constant to ‘char*’
vlgParser.y:757: warning: deprecated conversion from string constant to ‘char*’
vlgParser.y:761: warning: deprecated conversion from string constant to ‘char*’
vlgParser.y:765: warning: deprecated conversion from string constant to ‘char*’
vlgParser.y:769: warning: deprecated conversion from string constant to ‘char*’
vlgParser.y:773: warning: deprecated conversion from string constant to ‘char*’
vlgParser.y:777: warning: deprecated conversion from string constant to ‘char*’
vlgParser.y:788: warning: deprecated conversion from string constant to ‘char*’
vlgParser.y:799: warning: deprecated conversion from string constant to ‘char*’
vlgParser.y:806: warning: deprecated conversion from string constant to ‘char*’
vlgParser.y:810: warning: deprecated conversion from string constant to ‘char*’
vlgParser.y:817: warning: deprecated conversion from string constant to ‘char*’
vlgParser.y:821: warning: deprecated conversion from string constant to ‘char*’
vlgParser.y:825: warning: deprecated conversion from string constant to ‘char*’
vlgParser.y:832: warning: deprecated conversion from string constant to ‘char*’
vlgParser.y:836: warning: deprecated conversion from string constant to ‘char*’
vlgParser.y:843: warning: deprecated conversion from string constant to ‘char*’
vlgParser.y:847: warning: deprecated conversion from string constant to ‘char*’
vlgParser.y:854: warning: deprecated conversion from string constant to ‘char*’
vlgParser.y:858: warning: deprecated conversion from string constant to ‘char*’
vlgParser.y:862: warning: deprecated conversion from string constant to ‘char*’
vlgParser.y:866: warning: deprecated conversion from string constant to ‘char*’
vlgParser.y:870: warning: deprecated conversion from string constant to ‘char*’
vlgParser.y:874: warning: deprecated conversion from string constant to ‘char*’
vlgParser.y:878: warning: deprecated conversion from string constant to ‘char*’
vlgParser.y:882: warning: deprecated conversion from string constant to ‘char*’
vlgParser.y:886: warning: deprecated conversion from string constant to ‘char*’
vlgParser.y:893: warning: deprecated conversion from string constant to ‘char*’
vlgParser.y:900: warning: deprecated conversion from string constant to ‘char*’
vlgParser.y:907: warning: deprecated conversion from string constant to ‘char*’
vlgParser.y:911: warning: deprecated conversion from string constant to ‘char*’
vlgParser.y:918: warning: deprecated conversion from string constant to ‘char*’
vlgParser.y:925: warning: deprecated conversion from string constant to ‘char*’
vlgParser.y:929: warning: deprecated conversion from string constant to ‘char*’
vlgParser.y:936: warning: deprecated conversion from string constant to ‘char*’
vlgParser.y:940: warning: deprecated conversion from string constant to ‘char*’
vlgParser.y:947: warning: deprecated conversion from string constant to ‘char*’
vlgParser.y:951: warning: deprecated conversion from string constant to ‘char*’
vlgParser.y:960: warning: deprecated conversion from string constant to ‘char*’
vlgParser.y:964: warning: deprecated conversion from string constant to ‘char*’
vlgParser.y:971: warning: deprecated conversion from string constant to ‘char*’
vlgParser.y:982: warning: deprecated conversion from string constant to ‘char*’
vlgParser.y:998: warning: deprecated conversion from string constant to ‘char*’
vlgParser.y:1012: warning: deprecated conversion from string constant to ‘char*’
vlgParser.y:1023: warning: deprecated conversion from string constant to ‘char*’
vlgParser.y:1035: warning: deprecated conversion from string constant to ‘char*’
vlgParser.y:1040: warning: deprecated conversion from string constant to ‘char*’
vlgParser.y:1048: warning: deprecated conversion from string constant to ‘char*’
vlgParser.y:1052: warning: deprecated conversion from string constant to ‘char*’
vlgParser.y:1056: warning: deprecated conversion from string constant to ‘char*’
vlgParser.y:1060: warning: deprecated conversion from string constant to ‘char*’
vlgParser.y:1064: warning: deprecated conversion from string constant to ‘char*’
vlgParser.y:1068: warning: deprecated conversion from string constant to ‘char*’
vlgParser.y:1072: warning: deprecated conversion from string constant to ‘char*’
vlgParser.y:1076: warning: deprecated conversion from string constant to ‘char*’
vlgParser.y:1080: warning: deprecated conversion from string constant to ‘char*’
vlgParser.y:1084: warning: deprecated conversion from string constant to ‘char*’
vlgParser.y:1088: warning: deprecated conversion from string constant to ‘char*’
vlgParser.y:1098: warning: deprecated conversion from string constant to ‘char*’
vlgParser.y:1104: warning: deprecated conversion from string constant to ‘char*’
vlgParser.y:1113: warning: deprecated conversion from string constant to ‘char*’
vlgParser.y:1119: warning: deprecated conversion from string constant to ‘char*’
vlgParser.y:1125: warning: deprecated conversion from string constant to ‘char*’
vlgParser.y:1142: warning: deprecated conversion from string constant to ‘char*’
vlgParser.y:1146: warning: deprecated conversion from string constant to ‘char*’
vlgParser.y:1153: warning: deprecated conversion from string constant to ‘char*’
vlgParser.y:1160: warning: deprecated conversion from string constant to ‘char*’
vlgParser.y:1167: warning: deprecated conversion from string constant to ‘char*’
vlgParser.y:1174: warning: deprecated conversion from string constant to ‘char*’
vlgParser.y:1182: warning: deprecated conversion from string constant to ‘char*’
vlgParser.y:1192: warning: deprecated conversion from string constant to ‘char*’
vlgParser.y:1200: warning: deprecated conversion from string constant to ‘char*’
vlgParser.y:1209: warning: deprecated conversion from string constant to ‘char*’
vlgParser.y:1215: warning: deprecated conversion from string constant to ‘char*’
vlgParser.y:1223: warning: deprecated conversion from string constant to ‘char*’
vlgParser.y:1228: warning: deprecated conversion from string constant to ‘char*’
vlgParser.y:1237: warning: deprecated conversion from string constant to ‘char*’
vlgParser.y:1244: warning: deprecated conversion from string constant to ‘char*’
vlgParser.y:1252: warning: deprecated conversion from string constant to ‘char*’
vlgParser.y:1259: warning: deprecated conversion from string constant to ‘char*’
vlgParser.y:1263: warning: deprecated conversion from string constant to ‘char*’
vlgParser.y:1270: warning: deprecated conversion from string constant to ‘char*’
vlgParser.y:1277: warning: deprecated conversion from string constant to ‘char*’
vlgParser.y:1281: warning: deprecated conversion from string constant to ‘char*’
vlgParser.y:1288: warning: deprecated conversion from string constant to ‘char*’
vlgParser.y:1292: warning: deprecated conversion from string constant to ‘char*’
vlgParser.y:1296: warning: deprecated conversion from string constant to ‘char*’
vlgParser.y:1303: warning: deprecated conversion from string constant to ‘char*’
vlgParser.y:1307: warning: deprecated conversion from string constant to ‘char*’
vlgParser.y:1314: warning: deprecated conversion from string constant to ‘char*’
vlgParser.y:1318: warning: deprecated conversion from string constant to ‘char*’
vlgParser.y:1325: warning: deprecated conversion from string constant to ‘char*’
vlgParser.y:1329: warning: deprecated conversion from string constant to ‘char*’
vlgParser.y:1333: warning: deprecated conversion from string constant to ‘char*’
vlgParser.y:1337: warning: deprecated conversion from string constant to ‘char*’
vlgParser.y:1341: warning: deprecated conversion from string constant to ‘char*’
vlgParser.y:1348: warning: deprecated conversion from string constant to ‘char*’
vlgParser.y:1352: warning: deprecated conversion from string constant to ‘char*’
vlgParser.y:1356: warning: deprecated conversion from string constant to ‘char*’
vlgParser.y:1360: warning: deprecated conversion from string constant to ‘char*’
vlgParser.y:1364: warning: deprecated conversion from string constant to ‘char*’
vlgParser.y:1373: warning: deprecated conversion from string constant to ‘char*’
vlgParser.y:1380: warning: deprecated conversion from string constant to ‘char*’
vlgParser.y:1390: warning: deprecated conversion from string constant to ‘char*’
vlgParser.y:1401: warning: deprecated conversion from string constant to ‘char*’
vlgParser.y:1407: warning: deprecated conversion from string constant to ‘char*’
vlgParser.y:1416: warning: deprecated conversion from string constant to ‘char*’
vlgParser.y:1423: warning: deprecated conversion from string constant to ‘char*’
vlgParser.y:1427: warning: deprecated conversion from string constant to ‘char*’
vlgParser.y:1434: warning: deprecated conversion from string constant to ‘char*’
vlgParser.y:1438: warning: deprecated conversion from string constant to ‘char*’
vlgParser.y:1446: warning: deprecated conversion from string constant to ‘char*’
vlgParser.y:1451: warning: deprecated conversion from string constant to ‘char*’
vlgParser.y:1456: warning: deprecated conversion from string constant to ‘char*’
vlgParser.y:1461: warning: deprecated conversion from string constant to ‘char*’
vlgParser.y:1466: warning: deprecated conversion from string constant to ‘char*’
vlgParser.y:1471: warning: deprecated conversion from string constant to ‘char*’
vlgParser.y:1476: warning: deprecated conversion from string constant to ‘char*’
vlgParser.y:1481: warning: deprecated conversion from string constant to ‘char*’
vlgParser.y:1486: warning: deprecated conversion from string constant to ‘char*’
vlgParser.y:1491: warning: deprecated conversion from string constant to ‘char*’
vlgParser.y:1496: warning: deprecated conversion from string constant to ‘char*’
vlgParser.y:1501: warning: deprecated conversion from string constant to ‘char*’
vlgParser.y:1506: warning: deprecated conversion from string constant to ‘char*’
vlgParser.y:1511: warning: deprecated conversion from string constant to ‘char*’
vlgParser.y:1516: warning: deprecated conversion from string constant to ‘char*’
vlgParser.y:1521: warning: deprecated conversion from string constant to ‘char*’
vlgParser.y:1526: warning: deprecated conversion from string constant to ‘char*’
vlgParser.y:1531: warning: deprecated conversion from string constant to ‘char*’
vlgParser.y:1536: warning: deprecated conversion from string constant to ‘char*’
vlgParser.y:1541: warning: deprecated conversion from string constant to ‘char*’
vlgParser.y:1546: warning: deprecated conversion from string constant to ‘char*’
vlgParser.y:1551: warning: deprecated conversion from string constant to ‘char*’
vlgParser.y:1556: warning: deprecated conversion from string constant to ‘char*’
vlgParser.y:1561: warning: deprecated conversion from string constant to ‘char*’
vlgParser.y:1566: warning: deprecated conversion from string constant to ‘char*’
vlgParser.y:1571: warning: deprecated conversion from string constant to ‘char*’
vlgParser.y:1576: warning: deprecated conversion from string constant to ‘char*’
vlgParser.y:1584: warning: deprecated conversion from string constant to ‘char*’
vlgParser.y:1589: warning: deprecated conversion from string constant to ‘char*’
vlgParser.y:1597: warning: deprecated conversion from string constant to ‘char*’
vlgParser.y:1602: warning: deprecated conversion from string constant to ‘char*’
vlgParser.y:1610: warning: deprecated conversion from string constant to ‘char*’
vlgParser.y:1618: warning: deprecated conversion from string constant to ‘char*’
vlgParser.y:1623: warning: deprecated conversion from string constant to ‘char*’
vlgParser.y:1632: warning: deprecated conversion from string constant to ‘char*’
vlgParser.y:1645: warning: deprecated conversion from string constant to ‘char*’
vlgParser.y:1653: warning: deprecated conversion from string constant to ‘char*’
vlgParser.y:1661: warning: deprecated conversion from string constant to ‘char*’
vlgParser.y:1666: warning: deprecated conversion from string constant to ‘char*’
vlgParser.y:1674: warning: deprecated conversion from string constant to ‘char*’
vlgParser.y:1679: warning: deprecated conversion from string constant to ‘char*’
vlgParser.y:1687: warning: deprecated conversion from string constant to ‘char*’
vlgParser.y:1692: warning: deprecated conversion from string constant to ‘char*’
vlgParser.y:1697: warning: deprecated conversion from string constant to ‘char*’
vlgParser.y:1702: warning: deprecated conversion from string constant to ‘char*’
vlgParser.y:1707: warning: deprecated conversion from string constant to ‘char*’
vlgParser.y:1715: warning: deprecated conversion from string constant to ‘char*’
vlgParser.y:1720: warning: deprecated conversion from string constant to ‘char*’
vlgParser.y:1729: warning: deprecated conversion from string constant to ‘char*’
vlgParser.y:1735: warning: deprecated conversion from string constant to ‘char*’
vlgParser.y:1743: warning: deprecated conversion from string constant to ‘char*’
vlgParser.y:1749: warning: deprecated conversion from string constant to ‘char*’
vlgParser.y:1757: warning: deprecated conversion from string constant to ‘char*’
vlgParser.y:1762: warning: deprecated conversion from string constant to ‘char*’
vlgParser.y:1771: warning: deprecated conversion from string constant to ‘char*’
vlgParser.y:1781: warning: deprecated conversion from string constant to ‘char*’
vlgParser.y:1788: warning: deprecated conversion from string constant to ‘char*’
vlgParser.y:1794: warning: deprecated conversion from string constant to ‘char*’
vlgParser.y:1809: warning: deprecated conversion from string constant to ‘char*’
vlgParser.y:1819: warning: deprecated conversion from string constant to ‘char*’
vlgParser.y:1829: warning: deprecated conversion from string constant to ‘char*’
vlgParser.y:1837: warning: deprecated conversion from string constant to ‘char*’
vlgParser.y:1842: warning: deprecated conversion from string constant to ‘char*’
vlgParser.y:1852: warning: deprecated conversion from string constant to ‘char*’
vlgParser.y:1867: warning: deprecated conversion from string constant to ‘char*’
vlgParser.y:1879: warning: deprecated conversion from string constant to ‘char*’
vlgParser.y:1884: warning: deprecated conversion from string constant to ‘char*’
vlgParser.y:1899: warning: deprecated conversion from string constant to ‘char*’
vlgParser.y:1904: warning: deprecated conversion from string constant to ‘char*’
vlgParser.y:1913: warning: deprecated conversion from string constant to ‘char*’
vlgParser.y:1918: warning: deprecated conversion from string constant to ‘char*’
vlgParser.y:1946: warning: deprecated conversion from string constant to ‘char*’
vlgParser.y:1951: warning: deprecated conversion from string constant to ‘char*’
vlgParser.y:1970: warning: deprecated conversion from string constant to ‘char*’
vlgParser.y:1975: warning: deprecated conversion from string constant to ‘char*’
vlgParser.y:1989: warning: deprecated conversion from string constant to ‘char*’
vlgParser.y:1994: warning: deprecated conversion from string constant to ‘char*’
vlgParser.y:2007: warning: deprecated conversion from string constant to ‘char*’
vlgParser.y:2014: warning: deprecated conversion from string constant to ‘char*’
vlgParser.y:2021: warning: deprecated conversion from string constant to ‘char*’
vlgParser.y:2028: warning: deprecated conversion from string constant to ‘char*’
vlgParser.y:2034: warning: deprecated conversion from string constant to ‘char*’
vlgParser.y:2040: warning: deprecated conversion from string constant to ‘char*’
vlgParser.y:2046: warning: deprecated conversion from string constant to ‘char*’
vlgParser.y:2050: warning: deprecated conversion from string constant to ‘char*’
vlgParser.y:2061: warning: deprecated conversion from string constant to ‘char*’
vlgParser.y:2065: warning: deprecated conversion from string constant to ‘char*’
vlgParser.y:2076: warning: deprecated conversion from string constant to ‘char*’
vlgParser.y:2080: warning: deprecated conversion from string constant to ‘char*’
vlgParser.y:2092: warning: deprecated conversion from string constant to ‘char*’
vlgParser.y:2096: warning: deprecated conversion from string constant to ‘char*’
vlgParser.y:2108: warning: deprecated conversion from string constant to ‘char*’
vlgParser.y:2113: warning: deprecated conversion from string constant to ‘char*’
vlgParser.y:2118: warning: deprecated conversion from string constant to ‘char*’
vlgParser.y:2123: warning: deprecated conversion from string constant to ‘char*’
vlgParser.y:2128: warning: deprecated conversion from string constant to ‘char*’
vlgParser.y:2133: warning: deprecated conversion from string constant to ‘char*’
vlgParser.y:2138: warning: deprecated conversion from string constant to ‘char*’
vlgParser.y:2146: warning: deprecated conversion from string constant to ‘char*’
vlgParser.y:2150: warning: deprecated conversion from string constant to ‘char*’
vlgParser.y:2160: warning: deprecated conversion from string constant to ‘char*’
vlgParser.y:2165: warning: deprecated conversion from string constant to ‘char*’
vlgParser.y:2175: warning: deprecated conversion from string constant to ‘char*’
vlgParser.y:2182: warning: deprecated conversion from string constant to ‘char*’
vlgParser.y:2196: warning: deprecated conversion from string constant to ‘char*’
vlgParser.y:2207: warning: deprecated conversion from string constant to ‘char*’
vlgParser.y:2214: warning: deprecated conversion from string constant to ‘char*’
vlgParser.y:2226: warning: deprecated conversion from string constant to ‘char*’
vlgParser.y:2230: warning: deprecated conversion from string constant to ‘char*’
vlgParser.y:2235: warning: deprecated conversion from string constant to ‘char*’
vlgParser.y:2239: warning: deprecated conversion from string constant to ‘char*’
vlgParser.y:2242: warning: deprecated conversion from string constant to ‘char*’
vlgParser.y:2254: warning: deprecated conversion from string constant to ‘char*’
vlgParser.y:2260: warning: deprecated conversion from string constant to ‘char*’
vlgParser.y:2267: warning: deprecated conversion from string constant to ‘char*’
vlgParser.y:2271: warning: deprecated conversion from string constant to ‘char*’
vlgParser.y:2279: warning: deprecated conversion from string constant to ‘char*’
vlgParser.y:2286: warning: deprecated conversion from string constant to ‘char*’
vlgParser.y:2290: warning: deprecated conversion from string constant to ‘char*’
vlgParser.y:2297: warning: deprecated conversion from string constant to ‘char*’
vlgParser.y:2301: warning: deprecated conversion from string constant to ‘char*’
vlgParser.y:2305: warning: deprecated conversion from string constant to ‘char*’
vlgParser.y:2309: warning: deprecated conversion from string constant to ‘char*’
vlgParser.y:2313: warning: deprecated conversion from string constant to ‘char*’
vlgParser.y:2317: warning: deprecated conversion from string constant to ‘char*’
vlgParser.y:2328: warning: deprecated conversion from string constant to ‘char*’
vlgParser.y:2335: warning: deprecated conversion from string constant to ‘char*’
vlgParser.y:2342: warning: deprecated conversion from string constant to ‘char*’
vlgParser.y:2346: warning: deprecated conversion from string constant to ‘char*’
vlgParser.y:2353: warning: deprecated conversion from string constant to ‘char*’
vlgParser.y:2362: warning: deprecated conversion from string constant to ‘char*’
vlgParser.y:2503: warning: deprecated conversion from string constant to ‘char*’
vlgParser.y:2515: warning: deprecated conversion from string constant to ‘char*’
vlgParser.y:2528: warning: deprecated conversion from string constant to ‘char*’
vlgParser.y:2537: warning: deprecated conversion from string constant to ‘char*’
vlgParser.y:2545: warning: deprecated conversion from string constant to ‘char*’
vlgParser.y:2550: warning: deprecated conversion from string constant to ‘char*’
vlgParser.y:2559: warning: deprecated conversion from string constant to ‘char*’
vlgParser.y:2565: warning: deprecated conversion from string constant to ‘char*’
vlgParser.y:2571: warning: deprecated conversion from string constant to ‘char*’
vlgParser.y:2583: warning: deprecated conversion from string constant to ‘char*’
vlgParser.y:2595: warning: deprecated conversion from string constant to ‘char*’
vlgParser.y:2603: warning: deprecated conversion from string constant to ‘char*’
vlgParser.y:2609: warning: deprecated conversion from string constant to ‘char*’
vlgParser.y:2615: warning: deprecated conversion from string constant to ‘char*’
vlgParser.y:2621: warning: deprecated conversion from string constant to ‘char*’
vlgParser.y:2627: warning: deprecated conversion from string constant to ‘char*’
vlgParser.y:2633: warning: deprecated conversion from string constant to ‘char*’
vlgParser.y:2639: warning: deprecated conversion from string constant to ‘char*’
vlgParser.y:2645: warning: deprecated conversion from string constant to ‘char*’
vlgParser.y:2651: warning: deprecated conversion from string constant to ‘char*’
vlgParser.y:2657: warning: deprecated conversion from string constant to ‘char*’
vlgParser.y:2663: warning: deprecated conversion from string constant to ‘char*’
vlgParser.y:2669: warning: deprecated conversion from string constant to ‘char*’
vlgParser.y:2675: warning: deprecated conversion from string constant to ‘char*’
vlgParser.y:2681: warning: deprecated conversion from string constant to ‘char*’
vlgParser.y:2687: warning: deprecated conversion from string constant to ‘char*’
vlgParser.y:2693: warning: deprecated conversion from string constant to ‘char*’
vlgParser.y:2699: warning: deprecated conversion from string constant to ‘char*’
vlgParser.y:2706: warning: deprecated conversion from string constant to ‘char*’
vlgParser.y:2712: warning: deprecated conversion from string constant to ‘char*’
vlgParser.y:2718: warning: deprecated conversion from string constant to ‘char*’
vlgParser.y:2724: warning: deprecated conversion from string constant to ‘char*’
vlgParser.y:2730: warning: deprecated conversion from string constant to ‘char*’
vlgParser.y:2736: warning: deprecated conversion from string constant to ‘char*’
vlgParser.y:2742: warning: deprecated conversion from string constant to ‘char*’
vlgParser.y:2748: warning: deprecated conversion from string constant to ‘char*’
vlgParser.y:2754: warning: deprecated conversion from string constant to ‘char*’
vlgParser.y:2761: warning: deprecated conversion from string constant to ‘char*’
vlgParser.y:2767: warning: deprecated conversion from string constant to ‘char*’
vlgParser.y:2773: warning: deprecated conversion from string constant to ‘char*’
vlgParser.y:2779: warning: deprecated conversion from string constant to ‘char*’
vlgParser.y:2785: warning: deprecated conversion from string constant to ‘char*’
vlgParser.y:2792: warning: deprecated conversion from string constant to ‘char*’
vlgParser.y:2798: warning: deprecated conversion from string constant to ‘char*’
vlgParser.y:2804: warning: deprecated conversion from string constant to ‘char*’
vlgParser.y:2810: warning: deprecated conversion from string constant to ‘char*’
vlgParser.y:2816: warning: deprecated conversion from string constant to ‘char*’
vlgParser.y:2822: warning: deprecated conversion from string constant to ‘char*’
vlgParser.y:2828: warning: deprecated conversion from string constant to ‘char*’
vlgParser.y:2834: warning: deprecated conversion from string constant to ‘char*’
vlgParser.y:2848: warning: deprecated conversion from string constant to ‘char*’
vlgParser.y:2858: warning: deprecated conversion from string constant to ‘char*’
vlgParser.y:2865: warning: deprecated conversion from string constant to ‘char*’
vlgParser.y:2876: warning: deprecated conversion from string constant to ‘char*’
vlgParser.y:2886: warning: deprecated conversion from string constant to ‘char*’
vlgParser.y:2892: warning: deprecated conversion from string constant to ‘char*’
vlgParser.y:2928: warning: deprecated conversion from string constant to ‘char*’
vlgParser.y:2969: warning: deprecated conversion from string constant to ‘char*’
vlgParser.y:2974: warning: deprecated conversion from string constant to ‘char*’
vlgParser.y:2981: warning: deprecated conversion from string constant to ‘char*’
vlgParser.y:2985: warning: deprecated conversion from string constant to ‘char*’
vlgParser.y:2992: warning: deprecated conversion from string constant to ‘char*’
vlgParser.y:2996: warning: deprecated conversion from string constant to ‘char*’
vlgParser.y:3000: warning: deprecated conversion from string constant to ‘char*’
vlgParser.y:3004: warning: deprecated conversion from string constant to ‘char*’
vlgParser.y:3008: warning: deprecated conversion from string constant to ‘char*’
vlgParser.y:3012: warning: deprecated conversion from string constant to ‘char*’
vlgParser.y:3017: warning: deprecated conversion from string constant to ‘char*’
vlgParser.y:3024: warning: deprecated conversion from string constant to ‘char*’
vlgParser.y:3028: warning: deprecated conversion from string constant to ‘char*’
vlgParser.y:3032: warning: deprecated conversion from string constant to ‘char*’
vlgParser.y:3036: warning: deprecated conversion from string constant to ‘char*’
vlgParser.y:3040: warning: deprecated conversion from string constant to ‘char*’
vlgParser.y:3048: warning: deprecated conversion from string constant to ‘char*’
vlgParser.y:3053: warning: deprecated conversion from string constant to ‘char*’
vlgParser.y:3058: warning: deprecated conversion from string constant to ‘char*’
vlgParser.y:3068: warning: deprecated conversion from string constant to ‘char*’
vlgParser.y:3074: warning: deprecated conversion from string constant to ‘char*’
vlgParser.y:3080: warning: deprecated conversion from string constant to ‘char*’
vlgParser.y:3086: warning: deprecated conversion from string constant to ‘char*’
vlgParser.y:3094: warning: deprecated conversion from string constant to ‘char*’
vlgParser.y:3099: warning: deprecated conversion from string constant to ‘char*’
vlgParser.c:7237: warning: deprecated conversion from string constant to ‘char*’
vlgParser.c:7380: warning: deprecated conversion from string constant to ‘char*’
vlgParser.y: In function ‘char* get_string_from_varlist(_var**, int)’:
vlgParser.y:3159: warning: deprecated conversion from string constant to ‘char*’
g++  -pipe -I/scr/liu187/hybro/dpi/c_interface -O -I/tools/synopsys/vcs/B-2008.12/include -c ../../dpi/vlgLexer.c
make: *** Deleting file `vlgLexer.o'
make: *** [vlgLexer.o] Interrupt

