
'((|b01|
	   (type . module)
	   (portorder clock reset line1 line2 outp overflw)
	   (ins (0 0) clock)
	   (ins (0 0) reset)
	   (ins (0 0) line1)
	   (ins (0 0) line2)
	   (outs (0 0) outp)
	   (outs (0 0) overflw)
	   (wire (0 0) clock)
	   (wire (0 0) reset)
	   (wire (0 0) line1 line2)
	   (sts (0 0) outp)
	   (sts (7 0) ((0 100) branvar))
	   (sts (0 0) overflw)
	   (sts (2 0) stato)
	   (always
		
	   )
	 liulingyi )) ;; |b01|

===calling the print_var_table var_table_id=8
---the variable is clock[0:0] id=0
---the variable is reset[0:0] id=1
---the variable is line1[0:0] id=2
---the variable is line2[0:0] id=3
---the variable is outp[0:0] id=4
---the variable is overflw[0:0] id=5
---the variable is branvar[7:0] id=6
---the variable is stato[2:0] id=7